Purrr
…
---
## Introduction to `map`

And if we want, we can even get a data frame, as long as each entry has only one line...

```r
# There are several extract functions in different pkgs
# use magrittr::extract to get the one we need
map_df(got_chars, magrittr::extract, 
       c("name", "gender", "born", "died"))
```

```
## # A tibble: 30 × 4
##    name               gender born                                     died      
##    <chr>              <chr>  <chr>                                    <chr>     
##  1 Theon Greyjoy      Male   "In 278 AC or 279 AC, at Pyke"           ""        
##  2 Tyrion Lannister   Male   "In 273 AC, at Casterly Rock"            ""        
##  3 Victarion Greyjoy  Male   "In 268 AC or before, at Pyke"           ""        
##  4 Will               Male   ""                                       "In 297 A…
##  5 Areo Hotah         Male   "In 257 AC or before, at Norvos"         ""        
##  6 Chett              Male   "At Hag's Mire"                          "In 299 A…
##  7 Cressen            Male   "In 219 AC or 220 AC"                    "In 299 A…
##  8 Arianne Martell    Female "In 276 AC, at Sunspear"                 ""        
##  9 Daenerys Targaryen Female "In 284 AC, at Dragonstone"              ""        
## 10 Davos Seaworth     Male   "In 260 AC or before, at King's Landing" ""        
## # … with 20 more rows
```
…
Create a data frame of cat information using the single-length items in the `cats` object.

---
class:inverse
## Try it out Solutions

Create a data frame of cat information using the single-length items in the `cats` object.

```r
cat_df <- map_df(cats, magrittr::extract, c("breed", "image", "short_desc"))
cat_df
```

```
## # A tibble: 82 × 3
##    breed              image                                              short…¹
##    <chr>              <chr>                                              <chr>  
##  1 Abyssinian         https://cattime.com/assets/uploads/2011/12/file_2… A love…
##  2 Aegean             https://cattime.com/assets/uploads/2019/11/aegean… The Ae…
##  3 American Bobtail   https://cattime.com/assets/uploads/2011/12/file_2… With h…
##  4 American Curl      https://cattime.com/assets/uploads/2011/12/file_2… The Cu…
##  5 American Shorthair https://cattime.com/assets/uploads/2011/12/file_2… The ad…
##  6 American Wirehair  https://cattime.com/assets/uploads/2011/12/file_2… Sproin…
##  7 Aphrodite Giant    https://cattime.com/assets/uploads/2019/12/aphrod… The Ap…
##  8 Arabian Mau        https://cattime.com/assets/uploads/2020/01/arabia… The Ar…
##  9 Asian              https://cattime.com/assets/uploads/2020/03/asian-… The As…
## 10 Australian Mist    https://cattime.com/assets/uploads/2020/01/austra… The Au…
## # … with 72 more rows, and abbreviated variable name ¹​short_desc
```
…
---
## Creating List columns

Then, we can mutate a list-column using map to apply our function to every entry!

```r
cat_df <- cat_df %>%
  mutate(characteristics = map(cats, "characteristics") %>% 
           map(fix_characteristics))

select(cat_df, breed, characteristics)
```

```
## # A tibble: 82 × 2
##    breed              characteristics  
##    <chr>              <list>           
##  1 Abyssinian         <tibble [8 × 2]> 
##  2 Aegean             <tibble [10 × 2]>
##  3 American Bobtail   <tibble [10 × 2]>
##  4 American Curl      <tibble [9 × 2]> 
##  5 American Shorthair <tibble [9 × 2]> 
##  6 American Wirehair  <tibble [9 × 2]> 
##  7 Aphrodite Giant    <tibble [10 × 2]>
##  8 Arabian Mau        <tibble [10 × 2]>
##  9 Asian              <tibble [10 × 2]>
## 10 Australian Mist    <tibble [10 × 2]>
## # … with 72 more rows
```
…
